90 0.459375 0.619531 0.009375 0.0171875
77 0.477344 0.878125 0.0078125 0.00625
90 0.566406 0.454688 0.0109375 0.015625
77 0.553125 0.547656 0.00625 0.0046875
77 0.121094 0.230469 0.0078125 0.0046875
6 0.58125 0.397656 0.00625 0.0140625
6 0.201562 0.29375 0.00625 0.015625
77 0.699219 0.560156 0.0046875 0.0046875
77 0.135156 0.86875 0.0078125 0.00625
90 0.739844 0.0796875 0.0109375 0.015625
77 0.224219 0.389062 0.0078125 0.00625
77 0.8625 0.703906 0.009375 0.0046875
77 0.836719 0.223438 0.0078125 0.00625
77 0.792969 0.222656 0.0078125 0.0046875
77 0.459375 0.539844 0.009375 0.0046875
77 0.225 0.396094 0.009375 0.0046875
93 0.710156 0.382812 0.0078125 0.009375
72 0.124219 0.882031 0.0078125 0.0140625
72 0.0867188 0.124219 0.0078125 0.0140625
77 0.2875 0.551562 0.009375 0.00625
98 0.696094 0.05 0.0078125 0.015625
77 0.582812 0.219531 0.009375 0.0046875
77 0.392188 0.0640625 0.009375 0.00625
98 0.708594 0.403906 0.0078125 0.0140625
77 0.254687 0.389062 0.009375 0.00625
72 0.0867188 0.95 0.0078125 0.0125
77 0.383594 0.714063 0.0078125 0.00625
72 0.0953125 0.382812 0.00625 0.0125
72 0.0953125 0.282031 0.00625 0.0140625
77 0.252344 0.0609375 0.0078125 0.00625
72 0.0867188 0.227344 0.0078125 0.0140625
72 0.103125 0.560938 0.00625 0.015625
77 0.142969 0.721875 0.0078125 0.00625
77 0.9 0.563281 0.009375 0.0046875
77 0.232812 0.546094 0.009375 0.0046875
77 0.221094 0.0609375 0.0078125 0.00625
72 0.0953125 0.21875 0.00625 0.0125
77 0.427344 0.707031 0.0078125 0.0046875
77 0.132812 0.053125 0.009375 0.00625
77 0.346875 0.715625 0.009375 0.00625
72 0.0953125 0.446875 0.00625 0.0125
77 0.132031 0.392188 0.0078125 0.00625
72 0.0867188 0.392188 0.0078125 0.0125
72 0.0945313 0.714063 0.0078125 0.0125
72 0.102344 0.292969 0.0078125 0.0140625
77 0.289844 0.721875 0.0078125 0.00625
72 0.0945313 0.0523437 0.0078125 0.0140625
77 0.346875 0.721875 0.009375 0.00625
72 0.0882813 0.785937 0.0078125 0.0125
72 0.102344 0.889844 0.0078125 0.0140625
72 0.103125 0.458594 0.00625 0.0140625
72 0.0945313 0.878125 0.0078125 0.015625
77 0.927344 0.214062 0.0078125 0.00625
72 0.0875 0.886719 0.00625 0.0140625
77 0.290625 0.715625 0.009375 0.00625
72 0.0875 0.290625 0.00625 0.0125
77 0.142188 0.232812 0.009375 0.00625
80 0.692969 0.71875 0.0109375 0.00625
72 0.103906 0.624219 0.0078125 0.0140625
72 0.0960938 0.547656 0.0078125 0.0140625
72 0.0953125 0.776563 0.00625 0.0125
72 0.0882813 0.723437 0.0078125 0.0125
77 0.383594 0.711719 0.0078125 0.0046875
72 0.102344 0.0648438 0.0078125 0.0140625
72 0.0953125 0.116406 0.00625 0.0140625
72 0.103906 0.788281 0.0078125 0.0140625
77 0.132031 0.385938 0.0078125 0.00625
72 0.0875 0.621094 0.009375 0.0140625
72 0.0953125 0.941406 0.00625 0.0140625
77 0.253125 0.0554687 0.009375 0.0046875
66 0.0648438 0.889063 0.0203125 0.0375
77 0.714063 0.544531 0.009375 0.0046875
77 0.692187 0.710156 0.009375 0.0046875
72 0.0875 0.0617188 0.00625 0.0140625
77 0.639844 0.560156 0.0078125 0.0046875
66 0.0648438 0.230469 0.0203125 0.0390625
77 0.2875 0.542969 0.009375 0.0046875
72 0.102344 0.952344 0.0078125 0.0140625
77 0.795313 0.221094 0.009375 0.0046875
66 0.0632813 0.725781 0.0203125 0.0390625
77 0.334375 0.553906 0.009375 0.0046875
72 0.0960938 0.610937 0.0078125 0.0125
66 0.065625 0.395312 0.01875 0.0375
93 0.697656 0.0757812 0.0078125 0.0109375
77 0.476562 0.715625 0.009375 0.00625
98 0.811719 0.403906 0.0078125 0.0171875
72 0.102344 0.127344 0.0078125 0.0140625
77 0.5875 0.878125 0.009375 0.00625
77 0.740625 0.229687 0.009375 0.00625
72 0.0875 0.557031 0.009375 0.0140625
77 0.427344 0.714063 0.0078125 0.00625
77 0.830469 0.553906 0.0078125 0.0046875
77 0.132812 0.0585938 0.009375 0.0046875
72 0.0875 0.455469 0.009375 0.0140625
77 0.35 0.557031 0.009375 0.0046875
77 0.476562 0.707031 0.009375 0.0046875
77 0.521875 0.707031 0.009375 0.0046875
77 0.309375 0.88125 0.009375 0.00625
77 0.221094 0.0554687 0.0109375 0.0046875
46 0.065625 0.6125 0.021875 0.015625
77 0.279687 0.878125 0.009375 0.00625
77 0.521875 0.715625 0.009375 0.00625
66 0.0640625 0.065625 0.01875 0.0375
46 0.0648438 0.448438 0.0234375 0.015625
77 0.801562 0.0609375 0.009375 0.00625
77 0.795313 0.226562 0.009375 0.00625
66 0.0640625 0.560156 0.01875 0.0390625
46 0.0648438 0.778125 0.0234375 0.015625
77 0.866406 0.566406 0.0078125 0.0046875
77 0.310937 0.550781 0.009375 0.0046875
77 0.254687 0.394531 0.009375 0.0046875
77 0.828906 0.713281 0.0078125 0.0046875
77 0.392188 0.0554687 0.009375 0.0046875
46 0.0648438 0.283594 0.0234375 0.0140625
77 0.367188 0.226562 0.009375 0.00625
77 0.789062 0.878125 0.009375 0.00625
77 0.740625 0.223438 0.009375 0.00625
77 0.142969 0.715625 0.0109375 0.00625
77 0.617188 0.78125 0.009375 0.00625
77 0.78125 0.374219 0.009375 0.0046875
77 0.771875 0.0703125 0.009375 0.00625
77 0.459375 0.55625 0.009375 0.00625
77 0.311719 0.539062 0.0109375 0.00625
77 0.928125 0.221094 0.009375 0.0046875
77 0.5875 0.892969 0.009375 0.0046875
77 0.135156 0.883594 0.0078125 0.0046875
77 0.19375 0.439844 0.009375 0.0046875
77 0.829687 0.563281 0.009375 0.0046875
77 0.40625 0.226562 0.009375 0.00625
77 0.714063 0.5625 0.009375 0.00625
77 0.692969 0.875 0.0078125 0.00625
77 0.639844 0.544531 0.0078125 0.0046875
77 0.407813 0.389062 0.009375 0.00625
77 0.728125 0.878125 0.009375 0.00625
77 0.476562 0.892969 0.009375 0.0046875
77 0.578125 0.0648438 0.009375 0.0046875
77 0.398438 0.553906 0.009375 0.0046875
77 0.279687 0.886719 0.009375 0.0046875
77 0.591406 0.398438 0.0109375 0.00625
77 0.9 0.547656 0.009375 0.0046875
77 0.423438 0.878125 0.009375 0.00625
77 0.9 0.616406 0.009375 0.0046875
77 0.865625 0.557031 0.009375 0.0046875
77 0.807813 0.716406 0.009375 0.0046875
77 0.335938 0.883594 0.009375 0.0046875
77 0.532812 0.896094 0.009375 0.0046875
77 0.603906 0.226562 0.0078125 0.00625
46 0.0648438 0.11875 0.0234375 0.015625
77 0.376563 0.229687 0.009375 0.00625
77 0.859375 0.226562 0.009375 0.00625
46 0.0648438 0.94375 0.0234375 0.015625
77 0.20625 0.601562 0.009375 0.00625
77 0.205469 0.964844 0.0078125 0.0046875
77 0.692187 0.889844 0.009375 0.0046875
77 0.415625 0.550781 0.009375 0.0046875
77 0.404687 0.715625 0.009375 0.00625
77 0.8125 0.373437 0.009375 0.00625
77 0.935156 0.544531 0.0078125 0.0046875
77 0.557813 0.214844 0.009375 0.0046875
77 0.407031 0.217969 0.0109375 0.0046875
77 0.610937 0.547656 0.009375 0.0046875
77 0.370313 0.385938 0.009375 0.00625
77 0.154687 0.614062 0.009375 0.00625
77 0.657812 0.95 0.009375 0.00625
77 0.509375 0.61875 0.009375 0.00625
77 0.789062 0.896094 0.009375 0.0046875
77 0.382812 0.550781 0.009375 0.0046875
77 0.407813 0.397656 0.009375 0.0046875
77 0.304688 0.394531 0.009375 0.0046875
77 0.8125 0.451562 0.009375 0.00625
77 0.379687 0.878125 0.009375 0.00625
77 0.505469 0.392188 0.0109375 0.00625
77 0.8375 0.277344 0.009375 0.0046875
77 0.740625 0.271094 0.009375 0.0046875
77 0.821875 0.0648438 0.009375 0.0046875
77 0.18125 0.607813 0.009375 0.00625
77 0.920313 0.878125 0.009375 0.00625
77 0.875781 0.878125 0.0078125 0.00625
77 0.178125 0.301562 0.009375 0.00625
77 0.763281 0.625 0.0078125 0.00625
77 0.940625 0.0585938 0.009375 0.0046875
77 0.3875 0.391406 0.009375 0.0046875
77 0.279687 0.95 0.009375 0.00625
77 0.728125 0.949219 0.009375 0.0046875
77 0.214844 0.778125 0.0078125 0.00625
77 0.810938 0.88125 0.009375 0.00625
77 0.709375 0.436719 0.009375 0.0046875
77 0.221875 0.114844 0.009375 0.0046875
77 0.640625 0.614062 0.009375 0.00625
77 0.423438 0.889844 0.009375 0.0046875
77 0.567187 0.39375 0.009375 0.00625
77 0.789844 0.619531 0.0078125 0.0046875
77 0.598437 0.145313 0.009375 0.00625
77 0.771875 0.713281 0.009375 0.0046875
77 0.898438 0.88125 0.009375 0.00625
77 0.290625 0.763281 0.009375 0.0046875
77 0.575 0.604688 0.009375 0.00625
77 0.535156 0.614062 0.0078125 0.00625
77 0.179688 0.784375 0.009375 0.00625
77 0.535937 0.545313 0.009375 0.00625
77 0.484375 0.625781 0.009375 0.0046875
77 0.328125 0.398438 0.009375 0.00625
77 0.40625 0.295312 0.009375 0.00625
77 0.285937 0.232812 0.009375 0.00625
77 0.311719 0.607813 0.0078125 0.00625
77 0.573438 0.721875 0.009375 0.00625
77 0.289062 0.0523437 0.009375 0.0046875
77 0.471875 0.214844 0.009375 0.0046875
77 0.170312 0.971094 0.009375 0.0046875
77 0.432813 0.0617188 0.009375 0.0046875
77 0.36875 0.059375 0.009375 0.00625
77 0.252344 0.772656 0.0078125 0.0046875
77 0.801562 0.139062 0.009375 0.00625
77 0.232812 0.592188 0.009375 0.00625
77 0.676562 0.55625 0.009375 0.00625
77 0.532812 0.88125 0.009375 0.00625
77 0.935938 0.560156 0.009375 0.0046875
77 0.573438 0.7875 0.009375 0.00625
77 0.692187 0.766406 0.009375 0.0046875
77 0.382812 0.770312 0.009375 0.00625
77 0.4125 0.0585938 0.009375 0.0046875
77 0.617188 0.71875 0.009375 0.00625
77 0.789062 0.970312 0.009375 0.00625
77 0.871875 0.376563 0.009375 0.00625
77 0.445312 0.88125 0.009375 0.00625
77 0.407813 0.467187 0.009375 0.00625
77 0.598437 0.0617188 0.009375 0.0046875
77 0.55 0.71875 0.009375 0.00625
77 0.535937 0.217187 0.009375 0.00625
77 0.64375 0.451562 0.009375 0.00625
77 0.367188 0.553906 0.009375 0.0046875
77 0.392188 0.133594 0.009375 0.0046875
77 0.285156 0.391406 0.0078125 0.0046875
77 0.890625 0.373437 0.009375 0.00625
77 0.728125 0.892969 0.009375 0.0046875
77 0.623438 0.946094 0.009375 0.0046875
77 0.25 0.289844 0.009375 0.0046875
77 0.426562 0.391406 0.009375 0.0046875
77 0.879687 0.223438 0.009375 0.00625
77 0.714063 0.7125 0.009375 0.00625
77 0.63125 0.139062 0.009375 0.00625
77 0.49375 0.217969 0.009375 0.0046875
77 0.854688 0.880469 0.009375 0.0046875
77 0.242188 0.959375 0.009375 0.00625
77 0.554688 0.0617188 0.009375 0.0046875
77 0.251563 0.1125 0.009375 0.00625
77 0.428125 0.221094 0.009375 0.0046875
77 0.225 0.436719 0.009375 0.0046875
77 0.832812 0.884375 0.009375 0.00625
77 0.132812 0.103125 0.009375 0.00625
77 0.357812 0.88125 0.009375 0.00625
77 0.525 0.394531 0.009375 0.0046875
77 0.401563 0.88125 0.009375 0.00625
77 0.789062 0.548437 0.009375 0.00625
77 0.595312 0.71875 0.009375 0.00625
77 0.254687 0.445312 0.009375 0.00625
77 0.91875 0.704687 0.009375 0.00625
77 0.830469 0.610937 0.0078125 0.00625
77 0.654688 0.775781 0.009375 0.0046875
77 0.610937 0.457812 0.009375 0.00625
77 0.160938 0.1125 0.009375 0.00625
77 0.446875 0.394531 0.009375 0.0046875
77 0.492188 0.0585938 0.009375 0.0046875
77 0.485938 0.388281 0.009375 0.0046875
77 0.466406 0.392188 0.0078125 0.00625
77 0.192188 0.109375 0.009375 0.00625
77 0.692187 0.952344 0.009375 0.0046875
77 0.667188 0.285937 0.009375 0.00625
77 0.514844 0.220313 0.0109375 0.00625
77 0.664062 0.133594 0.009375 0.0046875
77 0.920313 0.892187 0.009375 0.00625
77 0.309375 0.0554687 0.009375 0.0046875
77 0.452344 0.0585938 0.0078125 0.0046875
77 0.348437 0.394531 0.009375 0.0046875
77 0.5125 0.0617188 0.009375 0.0046875
77 0.476562 0.946875 0.009375 0.00625
77 0.851562 0.379687 0.009375 0.00625
77 0.348437 0.0617188 0.009375 0.0046875
77 0.703125 0.280469 0.009375 0.0046875
77 0.901563 0.0648438 0.009375 0.0046875
77 0.929688 0.374219 0.009375 0.0046875
77 0.630469 0.292188 0.0109375 0.00625
77 0.8625 0.772656 0.009375 0.0046875
77 0.2125 0.295312 0.009375 0.00625
77 0.45 0.217969 0.009375 0.0046875
77 0.697656 0.124219 0.0109375 0.0046875
77 0.735937 0.710156 0.009375 0.0046875
77 0.832812 0.377344 0.009375 0.0046875
77 0.285937 0.280469 0.009375 0.0046875
77 0.676562 0.445312 0.009375 0.00625
77 0.610937 0.394531 0.009375 0.0046875
77 0.920313 0.0617188 0.009375 0.0046875
77 0.860937 0.0585938 0.009375 0.0046875
77 0.329688 0.0585938 0.009375 0.0046875
77 0.910937 0.376563 0.009375 0.00625
77 0.7375 0.63125 0.009375 0.00625
77 0.164062 0.442187 0.009375 0.00625
77 0.842188 0.0617188 0.009375 0.0046875
77 0.88125 0.0617188 0.009375 0.0046875
77 0.471875 0.0554687 0.009375 0.0046875
